{
    "idle" : {
        "frame_size":{ "x": "30", "y": "33" },
        "frameset": ["1"],
        "loop": "true",
        "speed": "8"
    },
    "walk" : {
        "frame_size":{ "x": "30", "y": "33" },
        "frameset": ["1"],
        "loop": "true",
        "speed": "8"
    },
    "attack" : {
        "frame_size":{ "x": "30", "y": "33" },
        "frameset": ["1", "hold 10", "1"],
        "loop": "false",
        "speed": "8"
    }
}
